MyLabJournal - Reporting with RMarkdown
…
Try changing results = "hide".

# Bike data
bikes_tbl      <- readRDS("~/GitHub/ss24-bdml-Adrian-0402/source_data/data products/bikes_tbl.rds")
bikeshops_tbl  <- readRDS("~/GitHub/ss24-bdml-Adrian-0402/source_data/data products/bikeshops_tbl.rds")
orderlines_tbl <- readRDS("~/GitHub/ss24-bdml-Adrian-0402/source_data/data products/orderlines_tbl.rds")

bike_orderlines_tbl <- orderlines_tbl %>%
    left_join(bikes_tbl,     by = c("product_id" = "bike_id")) %>%
    left_join(bikeshops_tbl, by = c("customer_id" = "bikeshop_id")) %>%
    mutate(total_price = price_euro * quantity)

bike_orderlines_tbl

# A tibble: 15,644 × 23
   order_id order_line order_date          customer_id product_id quantity model
      <dbl>      <dbl> <dttm>                    <dbl>      <dbl>    <dbl> <chr>
 1        1          1 2015-01-07 00:00:00           2       2681        1 Spec…
 2        1          2 2015-01-07 00:00:00           2       2411        1 Ulti…
 3        2          1 2015-01-10 00:00:00          10       2629        1 Neur…
 4        2          2 2015-01-10 00:00:00          10       2137        1 Spee…
 5        3          1 2015-01-10 00:00:00           6       2367        1 Stit…
 6        3          2 2015-01-10 00:00:00           6       1973        1 Road…
 7        3          3 2015-01-10 00:00:00           6       2422        1 Spee…
 8        3          4 2015-01-10 00:00:00           6       2655        1 Infl…
 9        3          5 2015-01-10 00:00:00           6       2247        1 Torq…
10        4          1 2015-01-11 00:00:00          22       2408        1 Ulti…
# ℹ 15,634 more rows
# ℹ 16 more variables: year <dbl>, frame_material <chr>, weight <dbl>,
#   price_euro <dbl>, category_1 <chr>, category_2 <chr>, category_3 <chr>,
#   gender <chr>, description <chr>, url <chr>, name <chr>, city <chr>,
#   state <chr>, lat <dbl>, lng <dbl>, total_price <dbl>
…
